------------------------------------------------------------------------
r1032984 | scripty | 2009-10-09 03:14:03 +0000 (Fri, 09 Oct 2009) | 1 line

SVN_SILENT made messages (.desktop file)
------------------------------------------------------------------------
